Example: Multiple-dose study • nif
…
DOSE
n

250
916

500
5362

To identify the subjects with dose reductions, we can use the
dose_red_sbs() function provided by the nif package:

nif_poc %>%
  dose_red_sbs()
#  # A tibble: 25 × 2
#        ID USUBJID          
#     <dbl> <chr>            
#   1    62 20230000221060015
#   2    66 20230000221070005
#   3    44 20230000221050006
#   4     3 20230000221010005
#   5    17 20230000221030004
#   6    76 20230000221070016
#   7    77 20230000221070018
#   8    10 20230000221020007
#   9    22 20230000221030010
#  10    46 20230000221050008
#  # ℹ 15 more rows
…
