…
| DOSE |    n |
|-----:|-----:|
|  250 | 1093 |
|  500 | 4763 |

To identify the subjects with dose reductions, we can use the
[`dose_red_sbs()`](../reference/dose_red_sbs.md) function provided by
the nif package:

``` r
nif_poc %>%
  dose_red_sbs()
#  # A tibble: 30 × 2
#        ID USUBJID          
#     <dbl> <chr>            
#   1    29 20230000221030016
#   2    34 20230000221040006
#   3    67 20230000221070001
#   4    79 20230000221080005
#   5    76 20230000221080002
#   6    13 20230000221020012
#   7    35 20230000221040007
#   8     5 20230000221010005
#   9    77 20230000221080003
#  10    32 20230000221040004
#  # ℹ 20 more rows
```
…
