PK parameter summary statistics by dose — nca_summary • nif
…
parameters
The NCA paramters to be tabulated as character,

group
The grouping variable, defaults to DOSE.

    Value

    A data frame

    Examples

nca_summary(nca(examplinib_sad_nif, analyte = "RS2023"))
#> # A tibble: 45 × 9
#> # Groups:   DOSE [9]
#>     DOSE PPTESTCD   geomean geocv median    iqr    min    max     n
#>    <dbl> <chr>        <dbl> <dbl>  <dbl>  <dbl>  <dbl>  <dbl> <int>
#>  1     5 aucinf.obs  147.   14.8  138.   20.8   132.   173.       3
#>  2     5 auclast     145.   14.8  136.   20.6   130.   172.       3
#>  3     5 cmax         41.6  17.9   40.6   7.46   35.4   50.3      3
#>  4     5 half.life     7.77  3.50   7.90  0.247   7.46   7.96     3
#>  5     5 tmax          1.31 23.7    1.5   0.25    1      1.5      3
#>  6    10 aucinf.obs  298.   12.5  294.   37.3   265.   340.       3
#>  7    10 auclast     296.   12.6  292.   37.3   263.   337.       3
#>  8    10 cmax         89.8  18.4   81.4  15.2    80.3  111.       3
#>  9    10 half.life     8.01 10.9    7.75  0.856   7.34   9.05     3
#> 10    10 tmax          1.31 23.7    1.5   0.25    1      1.5      3
#> # ℹ 35 more rows
…
